spt_mean_time=0.0006641979217529297, nx_mean_time=3.3269405364990235e-05, diff=-0.0006309285163879395
spt_mean_time=0.00023303747177124022, nx_mean_time=1.8009185791015625e-05, diff=-0.0002150282859802246
spt_mean_time=0.000259523868560791, nx_mean_time=1.0349273681640625e-05, diff=-0.0002491745948791504
spt_mean_time=0.006996636390686035, nx_mean_time=0.0005689764022827149, diff=-0.006427659988403321
spt_mean_time=0.004673957824707031, nx_mean_time=0.0007893681526184082, diff=-0.003884589672088623
spt_mean_time=0.004249866008758545, nx_mean_time=0.0010021638870239258, diff=-0.003247702121734619
spt_mean_time=0.4066761016845703, nx_mean_time=0.07317516803741456, diff=-0.3335009336471557
spt_mean_time=0.15607011318206787, nx_mean_time=0.07200126647949219, diff=-0.08406884670257568
spt_mean_time=0.15857291221618652, nx_mean_time=0.07464587688446045, diff=-0.08392703533172607
spt_mean_time=0.39563076496124266, nx_mean_time=0.07434346675872802, diff=-0.32128729820251467
spt_mean_time=0.14454867839813232, nx_mean_time=0.0732968807220459, diff=-0.07125179767608641
spt_mean_time=0.14206283092498778, nx_mean_time=0.07183549404144288, diff=-0.0702273368835449
spt_mean_time=0.005501494407653808, nx_mean_time=0.0009099721908569336, diff=-0.0045915222167968745
spt_mean_time=0.0035201287269592285, nx_mean_time=0.0006744265556335449, diff=-0.0028457021713256835
spt_mean_time=0.0036649632453918455, nx_mean_time=0.00047188758850097656, diff=-0.003193075656890869

spt_mean_time=0.040320324897766116, nx_mean_time=0.006774330139160156, diff=-0.03354599475860596
spt_mean_time=0.048120307922363284, nx_mean_time=0.005601429939270019, diff=-0.04251887798309326
spt_mean_time=0.04442067146301269, nx_mean_time=0.005504441261291504, diff=-0.03891623020172119
spt_mean_time=0.042531943321228026, nx_mean_time=0.007007384300231933, diff=-0.03552455902099609
spt_mean_time=0.042141389846801755, nx_mean_time=0.008333563804626465, diff=-0.03380782604217529
spt_mean_time=0.04745042324066162, nx_mean_time=0.0025185346603393555, diff=-0.044931888580322266


spt_mean_time=0.042363333702087405, nx_mean_time=0.0053358316421508786, diff=-0.037027502059936525
spt_mean_time=0.04451820850372314, nx_mean_time=0.005657219886779785, diff=-0.03886098861694336
spt_mean_time=0.04542255401611328, nx_mean_time=0.004844975471496582, diff=-0.0405775785446167
spt_mean_time=0.04102182388305664, nx_mean_time=0.0048449039459228516, diff=-0.03617691993713379
spt_mean_time=0.03879046440124512, nx_mean_time=0.010539531707763672, diff=-0.028250932693481445
spt_mean_time=0.04390120506286621, nx_mean_time=0.0, diff=-0.04390120506286621
spt_mean_time=0.4025334596633911, nx_mean_time=0.07489175796508789, diff=-0.3276417016983032
spt_mean_time=0.14441280364990233, nx_mean_time=0.07295944690704345, diff=-0.07145335674285888
spt_mean_time=0.14513449668884276, nx_mean_time=0.07352938652038574, diff=-0.07160511016845703

spt_mean_time=0.40286157131195066, nx_mean_time=0.07546947002410889, diff=-0.3273921012878418
spt_mean_time=0.14876132011413573, nx_mean_time=0.07484688758850097, diff=-0.07391443252563476
spt_mean_time=0.1482593297958374, nx_mean_time=0.07472243309020996, diff=-0.07353689670562744
spt_mean_time=0.39427766799926756, nx_mean_time=0.07487270832061768, diff=-0.3194049596786499
spt_mean_time=0.14494681358337402, nx_mean_time=0.07459664344787598, diff=-0.07035017013549805
spt_mean_time=0.1467642068862915, nx_mean_time=0.07421438694000244, diff=-0.07254981994628905
spt_mean_time=0.14482648372650148, nx_mean_time=0.07096347808837891, diff=-0.07386300563812256

spt_mean_time=0.7272355079650878, nx_mean_time=0.07316980361938477, diff=-0.6540657043457031
spt_mean_time=0.9136343955993652, nx_mean_time=0.0713670015335083, diff=-0.8422673940658569
spt_mean_time=0.9038550615310669, nx_mean_time=0.07149865627288818, diff=-0.8323564052581787

WITHOUT REMOVING VISITED
spt_mean_time=0.8797802686691284, nx_mean_time=0.07721583843231201, diff=-0.8025644302368163
spt_mean_time=1.245270037651062, nx_mean_time=0.0697397232055664, diff=-1.1755303144454956
spt_mean_time=1.249977135658264, nx_mean_time=0.06958274841308594, diff=-1.180394387245178
spt_mean_time=0.8693478584289551, nx_mean_time=0.07255163192749023, diff=-0.7967962265014649
spt_mean_time=1.2493828058242797, nx_mean_time=0.06928660869598388, diff=-1.180096197128296
spt_mean_time=1.268244457244873, nx_mean_time=0.07140805721282958, diff=-1.1968364000320435

WITH REMOVING VISITED
spt_mean_time=0.7211304426193237, nx_mean_time=0.07322144508361816, diff=-0.6479089975357055
spt_mean_time=0.8984865665435791, nx_mean_time=0.0702169418334961, diff=-0.8282696247100829
spt_mean_time=0.9028287887573242, nx_mean_time=0.06864359378814697, diff=-0.8341851949691772
spt_mean_time=0.7190008163452148, nx_mean_time=0.07160632610321045, diff=-0.6473944902420044
spt_mean_time=0.43772790431976316, nx_mean_time=0.07262749671936035, diff=-0.3651004076004028
spt_mean_time=0.43943922519683837, nx_mean_time=0.0720487117767334, diff=-0.367390513420105
spt_mean_time=0.7253124952316284, nx_mean_time=0.07334396839141846, diff=-0.65196852684021
spt_mean_time=0.4399604558944702, nx_mean_time=0.07291743755340577, diff=-0.36704301834106445
spt_mean_time=0.4444519758224487, nx_mean_time=0.07615649700164795, diff=-0.36829547882080077
+ NO DEBUG LOGS
spt_mean_time=0.5541759252548217, nx_mean_time=0.07577362060546874, diff=-0.47840230464935296
spt_mean_time=0.4241361618041992, nx_mean_time=0.07120738029479981, diff=-0.35292878150939944
spt_mean_time=0.4150612592697144, nx_mean_time=0.0766531229019165, diff=-0.3384081363677979
-
spt_mean_time=0.579266881942749, nx_mean_time=0.07614398002624512, diff=-0.5031229019165039
spt_mean_time=0.42172679901123045, nx_mean_time=0.07358481884002685, diff=-0.34814198017120357
spt_mean_time=0.43633978366851806, nx_mean_time=0.07195842266082764, diff=-0.3643813610076904
-
spt_mean_time=0.5842167139053345, nx_mean_time=0.07675156593322754, diff=-0.507465147972107
spt_mean_time=0.42898807525634763, nx_mean_time=0.0728405237197876, diff=-0.35614755153656
spt_mean_time=0.42822678089141847, nx_mean_time=0.07731575965881347, diff=-0.350911021232605
+ NO REDUNDANT SET CASTING
spt_mean_time=0.566751503944397, nx_mean_time=0.07480015754699706, diff=-0.4919513463973999
spt_mean_time=0.42810497283935545, nx_mean_time=0.06995797157287598, diff=-0.35814700126647947
spt_mean_time=0.4156740427017212, nx_mean_time=0.07236189842224121, diff=-0.34331214427948
-
spt_mean_time=0.5646495580673218, nx_mean_time=0.07345528602600097, diff=-0.49119427204132077
spt_mean_time=0.4356008768081665, nx_mean_time=0.07596473693847657, diff=-0.35963613986968995
spt_mean_time=0.4263883352279663, nx_mean_time=0.07307970523834229, diff=-0.35330862998962403
+ INITIAL FRONTIER AS SET
spt_mean_time=0.5704407215118408, nx_mean_time=0.07273108959197998, diff=-0.4977096319198608
spt_mean_time=0.4191901206970215, nx_mean_time=0.07270424365997315, diff=-0.34648587703704836
spt_mean_time=0.4174464464187622, nx_mean_time=0.07217259407043457, diff=-0.34527385234832764
+ NO COPY OF SPT REMAINS
spt_mean_time=0.5684153318405152, nx_mean_time=0.07573068141937256, diff=-0.4926846504211426
spt_mean_time=0.41305086612701414, nx_mean_time=0.07321028709411621, diff=-0.33984057903289794
spt_mean_time=0.408990216255188, nx_mean_time=0.0716027021408081, diff=-0.3373875141143799
-
spt_mean_time=0.5626011848449707, nx_mean_time=0.07380294799804688, diff=-0.4887982368469238
spt_mean_time=0.4089572191238403, nx_mean_time=0.06759107112884521, diff=-0.3413661479949951
spt_mean_time=0.40858614444732666, nx_mean_time=0.07006967067718506, diff=-0.3385164737701416
-
spt_mean_time=0.5499464750289917, nx_mean_time=0.07207388877868652, diff=-0.4778725862503052
spt_mean_time=0.40619869232177735, nx_mean_time=0.06996192932128906, diff=-0.3362367630004883
spt_mean_time=0.4094592571258545, nx_mean_time=0.07312042713165283, diff=-0.33633882999420167
+ ADDING WORTH IT CONDITION
spt_mean_time=0.5800573348999023, nx_mean_time=0.07537167072296143, diff=-0.5046856641769408
spt_mean_time=0.4338849067687988, nx_mean_time=0.07251989841461182, diff=-0.361365008354187
spt_mean_time=0.4234375, nx_mean_time=0.07300748825073242, diff=-0.3504300117492676
spt_mean_time=0.005732905864715576, nx_mean_time=0.000817415714263916, diff=-0.00491549015045166
spt_mean_time=0.004448888301849366, nx_mean_time=0.0007667398452758789, diff=-0.0036821484565734866
spt_mean_time=0.0044897222518920895, nx_mean_time=0.0007107806205749512, diff=-0.0037789416313171384

spt_mean_time=0.005803685188293457, nx_mean_time=0.0007983136177062988, diff=-0.005005371570587158
spt_mean_time=0.004561867713928223, nx_mean_time=0.0007806587219238282, diff=-0.0037812089920043947
spt_mean_time=0.004613826274871826, nx_mean_time=0.0008188629150390625, diff=-0.003794963359832764
